[
  {
    "model": "core.Formula",
    "pk": 1,
    "fields": {}
  },
  {
    "model": "core.Formula",
    "pk": 2,
    "fields": {}
  },
  {
    "model": "core.Formula",
    "pk": 3,
    "fields": {}
  },
  {
    "model": "core.Formula",
    "pk": 4,
    "fields": {}
  },
  {
    "model": "core.Formula",
    "pk": 5,
    "fields": {}
  },
  {
    "model": "core.Formula",
    "pk": 6,
    "fields": {}
  },
  {
    "model": "core.Formula",
    "pk": 7,
    "fields": {}
  },
  {
    "model": "core.Formula",
    "pk": 8,
    "fields": {}
  },
  {
    "model": "core.Formula",
    "pk": 9,
    "fields": {}
  },
  {
    "model": "core.Formula",
    "pk": 10,
    "fields": {}
  },
  {
    "model": "core.Formula",
    "pk": 11,
    "fields": {}
  },
  {
    "model": "core.Formula",
    "pk": 12,
    "fields": {}
  },
  {
    "model": "core.Formula",
    "pk": 13,
    "fields": {}
  },
  {
    "model": "core.Formula",
    "pk": 14,
    "fields": {}
  },
  {
    "model": "core.Formula",
    "pk": 15,
    "fields": {}
  },
  {
    "model": "core.Formula",
    "pk": 16,
    "fields": {}
  },
  {
    "model": "core.Formula",
    "pk": 17,
    "fields": {}
  },
  {
    "model": "core.Formula",
    "pk": 18,
    "fields": {}
  },
  {
    "model": "core.Formula",
    "pk": 19,
    "fields": {}
  },
  {
    "model": "core.formula",
    "pk": 1,
    "fields": {
      "name": "Density from Mass and Volume",
      "description": "Density calculation formula",
      "expression": "{3}={1}/{14}",
      "views_counter": 0,
      "is_popular": true,
      "parameters": [
        1,
        14,
        3
      ],
      "related": [
        2
      ]
    }
  },
  {
    "model": "core.formula",
    "pk": 2,
    "fields": {
      "name": "Mass from Density and Volume",
      "description": "Mass from Density and Volume",
      "expression": "{1}={3}*{14}",
      "views_counter": 0,
      "is_popular": true,
      "parameters": [
        1,
        3,
        14
      ],
      "related": [
        1
      ]
    }
  },
  {
    "model": "core.formula",
    "pk": 3,
    "fields": {
      "name": "Moles from mass & molecular weight",
      "description": "Moles from mass & molecular weight",
      "expression": "{6}={4}/{5}",
      "views_counter": 0,
      "is_popular": true,
      "parameters": [
        4,
        5,
        6
      ],
      "related": [
      ]
    }
  },
  {
    "model": "core.formula",
    "pk": 4,
    "fields": {
      "name": "Cell Counting: μL of Cell Suspension per well",
      "description": "Cell Counting",
      "expression": "{7}=({28}/(({8}/4)*10000))*1000",
      "views_counter": 0,
      "is_popular": true,
      "parameters": [
        7,
        8,
        28
      ],
      "related": [
        20,
        21
      ]
    }
  },
  {
    "model": "core.formula",
    "pk": 5,
    "fields": {
      "name": "% Cytotoxicity",
      "description": "% cytotoxicity calculation formula",
      "expression": "{11}=100*(({9}-{29})/({10}-{29}))",
      "views_counter": 0,
      "is_popular": true,
      "parameters": [
        9,
        10,
        29,
        11
      ],
      "related": []
    }
  },
  {
    "model": "core.formula",
    "pk": 6,
    "fields": {
      "name": "Mass from Percentage and Volume",
      "description": "Mass from Percentage and Volume ",
      "expression": "{1}={36}*{14}",
      "calculation_expression": "{1}={36}/100*{14}",
      "views_counter": 0,
      "is_popular": true,
      "parameters": [
        1,
        14,
        36
      ],
      "related": [
        10,
        19
      ]
    }
  },
  {
    "model": "core.formula",
    "pk": 7,
    "fields": {
      "name": "Percentage (%) from mass and volume",
      "description": "Percentage (%) from mass and volume",
      "expression": "{12}={1}/{2}",
      "views_counter": 0,
      "is_popular": false,
      "parameters": [
        1,
        2,
        12
      ],
      "related": []
    }
  },
  {
    "model": "core.formula",
    "pk": 8,
    "fields": {
      "name": "Concentration from Mass and Volume",
      "description": "Concentration calculation formula",
      "expression": "{16}={1}/{2}",
      "views_counter": 0,
      "is_popular": true,
      "parameters": [
        1,
        16,
        2
      ],
      "related": [
        15,
        18
      ]
    }
  },
  {
    "model": "core.formula",
    "pk": 9,
    "fields": {
      "name": "Concentration from Moles and Volume",
      "description": "Concentration from Moles and Volume",
      "expression": "{13}={15}/{2}",
      "views_counter": 0,
      "is_popular": true,
      "parameters": [
        2,
        15,
        13
      ],
      "related": [
        16,
        17
      ]
    }
  },
  {
    "model": "core.formula",
    "pk": 10,
    "fields": {
      "name": "Concentration in % (w/v)",
      "description": "Concentration in % (w/v) calculation formula",
      "expression": "{35}=100*({1}/{14})",
      "views_counter": 0,
      "is_popular": true,
      "parameters": [
        1,
        14,
        35
      ],
      "related": [
        19,
        6
      ]
    }
  },
  {
    "model": "core.formula",
    "pk": 11,
    "fields": {
      "name": "Dilutions: C1V1=C2V2 (C1 calc)",
      "description": "C1V1=C2V2 (C1 calc)",
      "expression": "{24}=({25}*{27})/{26}",
      "views_counter": 0,
      "is_popular": true,
      "parameters": [
        24,
        25,
        26,
        27
      ],
      "related": [
        12,
        13,
        14
      ]
    }
  },
  {
    "model": "core.formula",
    "pk": 12,
    "fields": {
      "name": "Dilutions: C1V1=C2V2 (V1 calc)",
      "description": "C1V1=C2V2 (V1)",
      "expression": "{26}=({25}*{27})/{24}",
      "views_counter": 0,
      "is_popular": true,
      "parameters": [
        24,
        25,
        26,
        27
      ],
      "related": [
        11,
        13,
        14
      ]
    }
  },
  {
    "model": "core.formula",
    "pk": 13,
    "fields": {
      "name": "Dilutions: C1V1=C2V2 (C2 calc)",
      "description": "C1V1=C2V2 (C2 calc)",
      "expression": "{25}=({26}*{24})/{27}",
      "views_counter": 0,
      "is_popular": true,
      "parameters": [
        24,
        25,
        26,
        27
      ],
      "related": [
        12,
        11,
        14
      ]
    }
  },
  {
    "model": "core.formula",
    "pk": 14,
    "fields": {
      "name": "Dilutions: C1V1=C2V2 (V2 calc)",
      "description": "C1V1=C2V2 (V2 calc)",
      "expression": "{27}=({26}*{24})/{25}",
      "views_counter": 0,
      "is_popular": true,
      "parameters": [
        24,
        25,
        26,
        27
      ],
      "related": [
        12,
        11,
        13
      ]
    }
  },
  {
    "model": "core.formula",
    "pk": 15,
    "fields": {
      "name": "Volume from Mass and Concentration",
      "description": "Volume from Mass and Concentration",
      "expression": "{2}={1}/{16}",
      "views_counter": 0,
      "is_popular": true,
      "parameters": [
        2,
        1,
        16
      ],
      "related": [
        8,
        18
      ]
    }
  },
  {
    "model": "core.formula",
    "pk": 16,
    "fields": {
      "name": "Volume from Moles and Concentration",
      "description": "Volume from Moles and Concentration",
      "expression": "{2}={15}/{13}",
      "views_counter": 0,
      "is_popular": true,
      "parameters": [
        2,
        15,
        13
      ],
      "related": [
        9,
        17
      ]
    }
  },
  {
    "model": "core.formula",
    "pk": 17,
    "fields": {
      "name": "Moles from Volume and Concentration",
      "description": "Moles from Volume and Concentration",
      "expression": "{15}={2}*{13}",
      "views_counter": 0,
      "is_popular": true,
      "parameters": [
        2,
        15,
        13
      ],
      "related": [
        9,
        16
      ]
    }
  },
  {
    "model": "core.formula",
    "pk": 18,
    "fields": {
      "name": "Mass from Concentration, Volume and MW",
      "description": "Mass calculation formula",
      "expression": "{1}={13}*{2}*{5}",
      "views_counter": 0,
      "is_popular": true,
      "parameters": [
        1,
        13,
        2,
        5
      ],
      "related": [
        8,
        15
      ]
    }
  },
  {
    "model": "core.formula",
    "pk": 19,
    "fields": {
      "name": "Concentration in % (v/v)",
      "description": "Concentration in % (v/v) calculation formula",
      "expression": "{35}=({19}/{20})*100",
      "views_counter": 0,
      "is_popular": true,
      "parameters": [
        35,
        19,
        20
      ],
      "related": [
        10,
        6
      ]
    }
  },
  {
    "model": "core.formula",
    "pk": 20,
    "fields": {
      "name": "Total Volume of Cell Suspension",
      "description": "Total Volume of Cell Suspension = (Volume of cell suspension/well (v) * # of wells)",
      "expression": "{30}={31}*{32}",
      "views_counter": 0,
      "is_popular": true,
      "parameters": [
        30,
        31,
        32
      ],
      "related": [
        21,
        4
      ]
    }
  },
  {
    "model": "core.formula",
    "pk": 21,
    "fields": {
      "name": "Total Volume of Supplementary Media",
      "description": "Supplementary media = (Total volume per well (v) * # of wells) – (Total volume (v) of cell suspension",
      "expression": "{33}=({34}*{32})-{30}",
      "views_counter": 0,
      "is_popular": true,
      "parameters": [
        33,
        34,
        30,
        32
      ],
      "related": [
        20,
        4
      ]
    }
  }
]
