[
  {
    "model": "core.formulaparameter",
    "pk": 1,
    "fields": {
      "description": "Mass",
      "physical_unit": 1,
      "default_measure": 1
    }
  },
  {
    "model": "core.formulaparameter",
    "pk": 2,
    "fields": {
      "description": "Volume",
      "physical_unit": 2,
      "default_measure": 7
    }
  },
  {
    "model": "core.formulaparameter",
    "pk": 3,
    "fields": {
      "description": "Density",
      "physical_unit": 5,
      "default_measure": 20
    }
  },
  {
    "model": "core.formulaparameter",
    "pk": 4,
    "fields": {
      "description": "Mass",
      "physical_unit": 1,
      "default_measure": 1
    }
  },
  {
    "model": "core.formulaparameter",
    "pk": 5,
    "fields": {
      "description": "Molecular Weight",
      "physical_unit": 6,
      "default_measure": 22
    }
  },
  {
    "model": "core.formulaparameter",
    "pk": 6,
    "fields": {
      "description": "Moles",
      "physical_unit": 3,
      "default_measure": 13
    }
  },
  {
    "model": "core.formulaparameter",
    "pk": 7,
    "fields": {
      "description": "of Cell Suspension",
      "physical_unit": 16,
      "default_measure": 10
    }
  },
  {
    "model": "core.formulaparameter",
    "pk": 8,
    "fields": {
      "description": "# of cells counted",
      "physical_unit": 7,
      "default_measure": 23
    }
  },
  {
    "model": "core.formulaparameter",
    "pk": 9,
    "fields": {
      "description": "Control Absorbance",
      "physical_unit": 9,
      "default_measure": 25
    }
  },
  {
    "model": "core.formulaparameter",
    "pk": 10,
    "fields": {
      "description": "Sample Absorbance",
      "physical_unit": 9,
      "default_measure": 25
    }
  },
  {
    "model": "core.formulaparameter",
    "pk": 11,
    "fields": {
      "description": "Cytotoxicity",
      "physical_unit": 10,
      "default_measure": 19
    }
  },
  {
    "model": "core.formulaparameter",
    "pk": 12,
    "fields": {
      "description": "Percentage",
      "physical_unit": 4,
      "default_measure": 19
    }
  },
  {
    "model": "core.formulaparameter",
    "pk": 13,
    "fields": {
      "description": "Concentration",
      "physical_unit": 15,
      "default_measure": 30
    }
  },
  {
    "model": "core.formulaparameter",
    "pk": 14,
    "fields": {
      "description": "Volume",
      "physical_unit": 2,
      "default_measure": 9
    }
  },
  {
    "model": "core.formulaparameter",
    "pk": 15,
    "fields": {
      "description": "Moles",
      "physical_unit": 3,
      "default_measure": 13
    }
  },
  {
    "model": "core.formulaparameter",
    "pk": 16,
    "fields": {
      "description": "Concentration",
      "physical_unit": 11,
      "default_measure": 26
    }
  },
  {
    "model": "core.formulaparameter",
    "pk": 17,
    "fields": {
      "description": "Concentration in % (w/v)",
      "physical_unit": 4,
      "default_measure": 19
    }
  },
  {
    "model": "core.formulaparameter",
    "pk": 18,
    "fields": {
      "description": "Concentration in % (v/v)",
      "physical_unit": 4,
      "default_measure": 19
    }
  },
  {
    "model": "core.formulaparameter",
    "pk": 19,
    "fields": {
      "description": "Volume of solute",
      "physical_unit": 2,
      "default_measure": 9
    }
  },
  {
    "model": "core.formulaparameter",
    "pk": 20,
    "fields": {
      "description": "Volume of solution",
      "physical_unit": 2,
      "default_measure": 9
    }
  },
  {
    "model": "core.formulaparameter",
    "pk": 21,
    "fields": {
      "description": "Mass",
      "physical_unit": 1,
      "default_measure": 3
    }
  },
  {
    "model": "core.formulaparameter",
    "pk": 22,
    "fields": {
      "description": "Concentration",
      "physical_unit": 15,
      "default_measure": 30
    }
  },
  {
    "model": "core.formulaparameter",
    "pk": 23,
    "fields": {
      "description": "Volume",
      "physical_unit": 2,
      "default_measure": 7
    }
  },
  {
    "model": "core.formulaparameter",
    "pk": 24,
    "fields": {
      "description": "Concentration 1",
      "physical_unit": 15,
      "default_measure": 30
    }
  },
  {
    "model": "core.formulaparameter",
    "pk": 25,
    "fields": {
      "description": "Concentration 2",
      "physical_unit": 15,
      "default_measure": 30
    }
  },
  {
    "model": "core.formulaparameter",
    "pk": 26,
    "fields": {
      "description": "Volume 1",
      "physical_unit": 2,
      "default_measure": 7
    }
  },
  {
    "model": "core.formulaparameter",
    "pk": 27,
    "fields": {
      "description": "Volume 2",
      "physical_unit": 2,
      "default_measure": 7
    }
  },
  {
    "model": "core.formulaparameter",
    "pk": 28,
    "fields": {
      "description": "# desired cells",
      "physical_unit": 13,
      "default_measure": 28
    }
  },
  {
    "model": "core.formulaparameter",
    "pk": 29,
    "fields": {
      "description": "Background Absorbance",
      "physical_unit": 9,
      "default_measure": 25
    }
  },
  {
    "model": "core.formulaparameter",
    "pk": 30,
    "fields": {
      "description": "Total Volume of Cell Suspension",
      "physical_unit": 2,
      "default_measure": 10
    }
  },
  {
    "model": "core.formulaparameter",
    "pk": 31,
    "fields": {
      "description": "Volume of cell suspension per well",
      "physical_unit": 2,
      "default_measure": 10
    }
  },
  {
    "model": "core.formulaparameter",
    "pk": 32,
    "fields": {
      "description": "# of wells",
      "physical_unit": 14,
      "default_measure": 29
    }
  },
  {
    "model": "core.formulaparameter",
    "pk": 33,
    "fields": {
      "description": "Total Volume of Supplementary Media",
      "physical_unit": 2,
      "default_measure": 10
    }
  },
  {
    "model": "core.formulaparameter",
    "pk": 34,
    "fields": {
      "description": "Total volume per well",
      "physical_unit": 2,
      "default_measure": 10
    }
  },
  {
    "model": "core.formulaparameter",
    "pk": 35,
    "fields": {
      "description": "Concentration",
      "physical_unit": 4,
      "default_measure": 19
    }
  },
  {
    "model": "core.formulaparameter",
    "pk": 36,
    "fields": {
      "description": "Percentage",
      "physical_unit": 4,
      "default_measure": 19
    }
  }
]
