[
  {
    "model": "core.Experiment",
    "pk": 1,
    "fields": {
      "name": "Эксперимент Тест1",
      "company" : "Источник-компания-или что там подразумевалось",
      "description" : "Не следует, однако забывать, что дальнейшее развитие различных форм деятельности способствует подготовки и реализации форм развития. Идейные соображения высшего порядка, а также дальнейшее развитие различных форм деятельности позволяет оценить значение новых предложений.",
      "is_popular" : true,
      "is_published" : true,
      "created_at": "2022-01-01 00:00:00",
      "updated_at": "2022-01-01 00:00:00"
    }
  },
  {
    "model": "core.ExperimentStage",
    "pk": 1,
    "fields": {
      "experiment": 1,
      "name": "Первый этап",
      "description" : "Описание этапа номер один",
      "position" : 0,
      "created_at": "2022-01-01 00:00:00",
      "updated_at": "2022-01-01 00:00:00"
    }
  },
  {
    "model": "core.ExperimentStage",
    "pk": 2,
    "fields": {
      "experiment": 1,
      "name": "Второй этап",
      "description" : "Описание этапа номер два",
      "position" : 1,
      "created_at": "2022-01-01 00:00:00",
      "updated_at": "2022-01-01 00:00:00"
    }
  },
  {
    "model": "core.StageStep",
    "pk": 1,
    "fields": {
      "stage": 1,
      "name": "Шаг номер один",
      "description" : "Описание шага номер один",
      "help_text" : "Подсказка - будьте внимательны!",
      "position" : 1,
      "can_create_note" : true,
      "can_create_timer" : true,
      "timer_default_duration" : "00:01:30",
      "formula" : 1,
      "created_at": "2022-01-01 00:00:00",
      "updated_at": "2022-01-01 00:00:00"
    }
  },
  {
    "model": "core.StageStep",
    "pk": 2,
    "fields": {
      "stage": 1,
      "name": "Шаг номер два",
      "description" : "Описание шага номер два",
      "help_text" : "Подсказка - будьте дважды внимательны!",
      "position" : 2,
      "can_create_note" : false,
      "can_create_timer" : false,
      "timer_default_duration" : "00:02:30",
      "formula" : 2,
      "created_at": "2022-01-01 00:00:00",
      "updated_at": "2022-01-01 00:00:00"
    }
  }
]